%!Adobe-FontList 1.14
%Locale:0x416

%BeginFont
Handler:DirectoryHandler
FontType:Invalid
OutlineFileName:A:\seletiva\wp-content\themes\wdezoitotheme\Font\fontawesome\fontawesome-webfont.woff2
FileModTime:1460469732
%EndFont

%BeginFont
Handler:DirectoryHandler
FontType:Invalid
OutlineFileName:A:\seletiva\wp-content\themes\wdezoitotheme\Font\fontawesome\fontawesome-webfont.eot
FileModTime:1460469732
%EndFont

%BeginFont
Handler:DirectoryHandler
FontType:Type1
FontName:FontAwesome
FamilyName:FontAwesome
StyleName:Regular
FullName:FontAwesome
MenuName:FontAwesome
StyleBits:0
WritingScript:Roman
OutlineFileName:A:\seletiva\wp-content\themes\wdezoitotheme\Font\fontawesome\FontAwesome.otf
DataFormat:sfntData
UsesStandardEncoding:yes
isCFF:yes
FileLength:123112
FileModTime:1460469732
WeightClass:400
WidthClass:5
AngleClass:0
%EndFont

%BeginFont
Handler:DirectoryHandler
FontType:TrueType
FontName:FontAwesome
FamilyName:FontAwesome
StyleName:Regular
FullName:FontAwesome Regular
MenuName:FontAwesome
StyleBits:0
WritingScript:Roman
OutlineFileName:A:\seletiva\wp-content\themes\wdezoitotheme\Font\fontawesome\fontawesome-webfont.ttf
DataFormat:sfntData
FileLength:150920
FileModTime:1460469732
WeightClass:400
WidthClass:5
AngleClass:0
%EndFont

%BeginFont
Handler:DirectoryHandler
FontType:Invalid
OutlineFileName:A:\seletiva\wp-content\themes\wdezoitotheme\Font\fontawesome\fontawesome-webfont.woff
FileModTime:1460469732
%EndFont

%BeginFont
Handler:DirectoryHandler
FontType:Invalid
OutlineFileName:A:\seletiva\wp-content\themes\wdezoitotheme\Font\fontawesome\fontawesome-webfont.svg
FileModTime:1460469732
%EndFont

